<svg xmlns="http://www.w3.org/2000/svg" width="1500" height="150" viewBox="0 0 1500 150">
    <defs>

        <style>@import url('https://use.typekit.net/bne3vod.css');.a,.d,.e{fill:#9bafc7;}.a,.b{font-size:120px;font-family: acumin-pro, sans-serif;font-weight:700;}.a{letter-spacing:-0.03em;}.b{fill:#505c68;letter-spacing:-0.02em;}.c{fill:none;}.e{font-size:30px;font-family: acumin-pro, sans-serif;}</style>
    </defs>
    <g transform="translate(-253 -63)">
        <g transform="translate(-24 4)">
            <text class="a" transform="translate(1777 147)">
                <tspan x="-690" y="0">Music Player</tspan>
            </text>
            <text class="b" transform="translate(1059 147)">
                <tspan x="-781.8" y="0">Binaural Beats</tspan>
            </text>
        </g>
    </g>
    <g transform="translate(7 114)">
        <rect class="c" width="32" height="31"/>
        <g transform="translate(1.817 1.817)">
            <path class="d" d="M17.471,3C9.48,3,3,9.024,3,16.454V26.917a3.118,3.118,0,0,0,3.216,2.99h6.432V17.948H6.216V16.454c0-5.785,5.033-10.464,11.255-10.464s11.255,4.679,11.255,10.464v1.495H22.3V29.907h6.432a3.118,3.118,0,0,0,3.216-2.99V16.454C31.943,9.024,25.463,3,17.471,3Z" transform="translate(-3 -4)"/>
        </g>
    </g>
    <text class="e" transform="translate(41 142)">
        <tspan x="0" y="0">Headphones required</tspan>
    </text>
</svg>